…
dynamite_reviews = bind_rows(
  read_page_reviews(vec_urls[1]),
  read_page_reviews(vec_urls[2]),
  read_page_reviews(vec_urls[3]),
  read_page_reviews(vec_urls[4]),
  read_page_reviews(vec_urls[5])
)

dynamite_reviews
```

    ## # A tibble: 50 × 3
    ##    title                                      stars text                        
    ##    <chr>                                      <dbl> <chr>                       
    ##  1 Lol hey it’s Napoleon. What’s not to love…     5 Vote for Pedro              
    ##  2 Still the best                                 5 Completely stupid, absolute…
    ##  3 70’s and 80’s Schtick Comedy                   5 …especially funny if you ha…
    ##  4 Amazon Censorship                              5 I hope Amazon does not cens…
    ##  5 Watch to say you did                           3 I know it's supposed to be …
    ##  6 Best Movie Ever!                               5 We just love this movie and…
    ##  7 Quirky                                         5 Good family film            
    ##  8 Funny movie - can't play it !                  1 Sony 4k player won't even r…
    ##  9 A brilliant story about teenage life           5 Napoleon Dynamite delivers …
    ## 10 HUHYAH                                         5 Spicy                       
    ## # … with 40 more rows
…
